digraph default_model {
//States
_1
_1_1
_2[shape = "doublecircle"]
//Transitions
_1 -> _1_1[ label = "()/0.0", probability = "0.0", set_guard = "('', '')", check_guard = "('', '')", edge_id = "cddb80f0-3a66-11e8-aeec-e8b1fc3e4f3f"]
}