{
    "Server_address":"10.0.0.0",
    "Jenkins_slave_count":"1",
    "Version_control":
        {
            "git":{"state":"disabled","gitrepo":"https://qautomateoy@bitbucket.org/qautomateoy/qautocloud.git", "branch":"master","folder":"exampleset1"},
            "upload":{"state":"enabled","zipname":"workingdir.zip"},
            "local":{"state":"disabled","file_path":"c:\\jsonpractise\\workingdir.zip"}
        },
    "Command":
    {
        "selected": "normal",
        "execution_time":"1",
        "fast": "python -m robot.run -x outputjunit.xml -d test_reports --variable BROWSER:gc --variable TESTDATA:data/autogen_parameters.xml tests/exampleset1.robot",
        "normal": "python -m robot.run -x outputjunit.xml -d test_reports --variable BROWSER:browser --variable TESTDATA:data/autogen_parameters.xml tests/exampleset1.robot",
        "splitted":
        [
        "python -m robot.run -x outputjunit.xml -d test_reports --variable BROWSER:gc --variable TESTDATA:data/autogen_parameters.xml tests/exampleset1.robot",
        "python -m robot.run -x outputjunit.xml -d test_reports --variable BROWSER:gc --variable TESTDATA:data/autogen_parameters.xml tests/exampleset2.robot",
        "python -m robot.run -x outputjunit.xml -d test_reports --variable BROWSER:gc --variable TESTDATA:data/autogen_parameters.xml tests/exampleset3.robot"
        ]
    },
    "Platform":
    {
        "Windows":
            {
                "Windows2016":{"state":"enabled"},
                "Windows2012":{"state":"disabled"}
            },
        "Linux":
            {
                "Ubuntu18.04":{"state":"disabled"},
                "Ubuntu16.04":{"state":"enabled"}
            }
    },
    "Selenium_webdriver":"3.9.0",
    "Browser":
    {
        "Firefox":
            {
                "Firefox62":{"state":"enabled","version":"62.0.0", "driver":"0.21.0"},
                "Firefox57":{"state":"enabled","version":"57.0.4", "driver":"0.19.1"},
                "Firefox56":{"state":"disabled", "version":"56.0.2", "driver":"0.19.1"},
                "Firefox55":{"state":"disabled", "version":"55.0.3", "driver":"0.19.0"},
                "Firefox54":{"state":"disabled","version":"54.0.1", "driver":"0.18.0"},
                "Firefox53":{"state":"disabled", "version":"53.0.3", "driver":"0.18.0"},
                "Firefox52":{"state":"disabled", "version":"52.5.0esr", "driver":"0.18.0"},
                "Firefox51":{"state":"disabled", "version":"51.0.1", "driver":"0.18.0"}
            },
        "Chrome":
            {
                "Chrome68":{"state":"enabled","version":"68.0.3440.84", "driver":"2.42.0"},
                "Chrome63":{"state":"enabled","version":"63.0.3239.108", "driver":"2.34.0"},
                "Chrome61":{"state":"disabled", "version":"61.0.3163.79", "driver":"2.33.0"},
                "Chrome59":{"state":"disabled", "version":"59.0.3071.86", "driver":"2.31.0"},
                "Chrome58":{"state":"disabled","version":"58.0.3029.96", "driver":"2.31.0"},
                "Chrome57":{"state":"disabled", "version":"57.0.2987.133", "driver":"2.28.0"},
                "Chrome48":{"state":"disabled", "version":"48.0.2564.97", "driver":"2.21.0"}
            },
        "IE":
            {
                "IE11":{"state":"disabled","version":"11", "driver":"3.6"}
            }
    }
}



